EESchema Schematic File Version 4
EELAYER 30 0
EELAYER END
$Descr A4 11693 8268
encoding utf-8
Sheet 1 1
Title "Motor Position Feedback OpAmp"
Date "2021-06-03"
Rev "1.0"
Comp "EEE3088-Group45"
Comment1 ""
Comment2 ""
Comment3 ""
Comment4 ""
$EndDescr
$Comp
L Device:R_US R1
U 1 1 606E1906
P 5750 3950
F 0 "R1" H 5818 3996 50  0000 L CNN
F 1 "200" H 5818 3905 50  0000 L CNN
F 2 "Resistor_THT:R_Axial_DIN0207_L6.3mm_D2.5mm_P10.16mm_Horizontal" V 5790 3940 50  0001 C CNN
F 3 "~" H 5750 3950 50  0001 C CNN
	1    5750 3950
	1    0    0    -1  
$EndComp
Wire Wire Line
	5750 4100 5750 4200
$Comp
L power:GND #PWR03
U 1 1 606EB6DE
P 5750 4200
F 0 "#PWR03" H 5750 3950 50  0001 C CNN
F 1 "GND" H 5755 4027 50  0000 C CNN
F 2 "" H 5750 4200 50  0001 C CNN
F 3 "" H 5750 4200 50  0001 C CNN
	1    5750 4200
	1    0    0    -1  
$EndComp
$Comp
L power:GND #PWR01
U 1 1 606EF84E
P 4550 3400
F 0 "#PWR01" H 4550 3150 50  0001 C CNN
F 1 "GND" H 4555 3227 50  0000 C CNN
F 2 "" H 4550 3400 50  0001 C CNN
F 3 "" H 4550 3400 50  0001 C CNN
	1    4550 3400
	1    0    0    -1  
$EndComp
Text Notes 4900 3700 2    50   ~ 0
Magnetic sensor
$Comp
L Device:R_US R2
U 1 1 60B3EFAC
P 5200 3350
F 0 "R2" V 4995 3350 50  0000 C CNN
F 1 "150" V 5086 3350 50  0000 C CNN
F 2 "Resistor_THT:R_Axial_DIN0207_L6.3mm_D2.5mm_P10.16mm_Horizontal" V 5240 3340 50  0001 C CNN
F 3 "~" H 5200 3350 50  0001 C CNN
	1    5200 3350
	0    1    1    0   
$EndComp
$Comp
L Device:R_US R3
U 1 1 60B3FBEC
P 5450 3000
F 0 "R3" H 5518 3046 50  0000 L CNN
F 1 "100K" H 5518 2955 50  0000 L CNN
F 2 "Resistor_THT:R_Axial_DIN0207_L6.3mm_D2.5mm_P10.16mm_Horizontal" V 5490 2990 50  0001 C CNN
F 3 "~" H 5450 3000 50  0001 C CNN
	1    5450 3000
	1    0    0    -1  
$EndComp
Wire Wire Line
	5750 2750 5750 2600
Wire Wire Line
	4950 3000 4950 3350
Wire Wire Line
	4950 3350 5050 3350
Wire Wire Line
	5350 3350 5450 3350
Wire Wire Line
	5450 3350 5450 3150
Wire Wire Line
	5450 2850 5450 2600
Connection ~ 5450 3350
Wire Wire Line
	5450 3350 5950 3350
$Comp
L Device:R_US R4
U 1 1 60B49101
P 5750 2900
F 0 "R4" H 5818 2946 50  0000 L CNN
F 1 "10k" H 5818 2855 50  0000 L CNN
F 2 "Resistor_THT:R_Axial_DIN0207_L6.3mm_D2.5mm_P10.16mm_Horizontal" V 5790 2890 50  0001 C CNN
F 3 "~" H 5750 2900 50  0001 C CNN
	1    5750 2900
	1    0    0    -1  
$EndComp
Wire Wire Line
	7550 3300 7550 3450
$Comp
L power:GND #PWR0101
U 1 1 60B8EDDD
P 7550 3450
F 0 "#PWR0101" H 7550 3200 50  0001 C CNN
F 1 "GND" H 7555 3277 50  0000 C CNN
F 2 "" H 7550 3450 50  0001 C CNN
F 3 "" H 7550 3450 50  0001 C CNN
	1    7550 3450
	1    0    0    -1  
$EndComp
$Comp
L LM358P:LM358P IC1
U 1 1 60B9FC07
P 5950 3150
F 0 "IC1" H 6500 3415 50  0000 C CNN
F 1 "LM358P" H 6500 3324 50  0000 C CNN
F 2 "DIP794W53P254L959H508Q8N" H 6900 3250 50  0001 L CNN
F 3 "http://www.ti.com/lit/ds/symlink/lm358a.pdf" H 6900 3150 50  0001 L CNN
F 4 "LM358P, Dual Operational Amplifier 0.7MHz 5 to 28V, 8-Pin PDIP" H 6900 3050 50  0001 L CNN "Description"
F 5 "5.08" H 6900 2950 50  0001 L CNN "Height"
F 6 "Texas Instruments" H 6900 2850 50  0001 L CNN "Manufacturer_Name"
F 7 "LM358P" H 6900 2750 50  0001 L CNN "Manufacturer_Part_Number"
F 8 "595-LM358P" H 6900 2650 50  0001 L CNN "Mouser Part Number"
F 9 "https://www.mouser.co.uk/ProductDetail/Texas-Instruments/LM358P?qs=X1HXWTtiZ0QtOTT8%252BVnsyw%3D%3D" H 6900 2550 50  0001 L CNN "Mouser Price/Stock"
F 10 "LM358P" H 6900 2450 50  0001 L CNN "Arrow Part Number"
F 11 "https://www.arrow.com/en/products/lm358p/texas-instruments" H 6900 2350 50  0001 L CNN "Arrow Price/Stock"
	1    5950 3150
	1    0    0    -1  
$EndComp
Wire Wire Line
	5750 3050 5750 3250
Wire Wire Line
	5950 3250 5750 3250
Connection ~ 5750 3250
Wire Wire Line
	5750 3250 5750 3800
Connection ~ 7550 2800
Wire Wire Line
	7550 2800 7550 3000
$Comp
L Device:R_US R6
U 1 1 60B71738
P 7550 3150
F 0 "R6" H 7618 3196 50  0000 L CNN
F 1 "2.7K" H 7618 3105 50  0000 L CNN
F 2 "Resistor_THT:R_Axial_DIN0207_L6.3mm_D2.5mm_P10.16mm_Horizontal" V 7590 3140 50  0001 C CNN
F 3 "~" H 7550 3150 50  0001 C CNN
	1    7550 3150
	1    0    0    -1  
$EndComp
$Comp
L Device:R_US R5
U 1 1 60B70F2B
P 6550 2800
F 0 "R5" V 6345 2800 50  0000 C CNN
F 1 "7.5K" V 6436 2800 50  0000 C CNN
F 2 "Resistor_THT:R_Axial_DIN0207_L6.3mm_D2.5mm_P10.16mm_Horizontal" V 6590 2790 50  0001 C CNN
F 3 "~" H 6550 2800 50  0001 C CNN
	1    6550 2800
	0    1    1    0   
$EndComp
Text Notes 8150 2900 2    50   ~ 0
0-3.3V
Wire Wire Line
	5950 3150 5950 2800
Wire Wire Line
	7050 3150 7150 3150
Wire Wire Line
	7150 3150 7150 2600
Wire Wire Line
	7150 2600 5750 2600
Connection ~ 5750 2600
Wire Wire Line
	5950 2800 6400 2800
Wire Wire Line
	6700 2800 7550 2800
NoConn ~ 7050 3250
NoConn ~ 7050 3350
NoConn ~ 7050 3450
Text Label 8000 2800 0    50   ~ 0
Vpout
Wire Wire Line
	5950 3450 5950 3650
$Comp
L Connector_Generic:Conn_01x04 J1
U 1 1 60BDF394
P 8700 2800
F 0 "J1" H 8780 2792 50  0000 L CNN
F 1 "Conn_01x04" H 8780 2701 50  0000 L CNN
F 2 "Connector_Molex:Molex_KK-396_A-41791-0004_1x04_P3.96mm_Vertical" H 8700 2800 50  0001 C CNN
F 3 "~" H 8700 2800 50  0001 C CNN
	1    8700 2800
	1    0    0    -1  
$EndComp
Wire Wire Line
	8500 2700 8250 2700
Wire Wire Line
	8250 2700 8250 2600
Wire Wire Line
	8250 2600 7150 2600
Connection ~ 7150 2600
Wire Wire Line
	7550 2800 8500 2800
Wire Wire Line
	5950 3650 8350 3650
Wire Wire Line
	8350 3650 8350 2900
Wire Wire Line
	8350 2900 8500 2900
Wire Wire Line
	8500 3000 8500 3050
$Comp
L power:GND #PWR05
U 1 1 60BEA4F7
P 8500 3050
F 0 "#PWR05" H 8500 2800 50  0001 C CNN
F 1 "GND" H 8505 2877 50  0000 C CNN
F 2 "" H 8500 3050 50  0001 C CNN
F 3 "" H 8500 3050 50  0001 C CNN
	1    8500 3050
	1    0    0    -1  
$EndComp
$Comp
L power:-12V #PWR04
U 1 1 60BEA8ED
P 5950 3650
F 0 "#PWR04" H 5950 3750 50  0001 C CNN
F 1 "-12V" H 5965 3823 50  0000 C CNN
F 2 "" H 5950 3650 50  0001 C CNN
F 3 "" H 5950 3650 50  0001 C CNN
	1    5950 3650
	-1   0    0    1   
$EndComp
Connection ~ 5950 3650
$Comp
L power:+12V #PWR02
U 1 1 60BD7F98
P 5750 2500
F 0 "#PWR02" H 5750 2350 50  0001 C CNN
F 1 "+12V" H 5765 2673 50  0000 C CNN
F 2 "" H 5750 2500 50  0001 C CNN
F 3 "" H 5750 2500 50  0001 C CNN
	1    5750 2500
	1    0    0    -1  
$EndComp
$Comp
L Sensor_Magnetic:A1302KLHLT-T U1
U 1 1 60B613A8
P 4650 3000
F 0 "U1" H 4421 3046 50  0000 R CNN
F 1 "A1302KLHLT-T" H 4421 2955 50  0000 R CNN
F 2 "Package_TO_SOT_SMD:SOT-23W" H 4650 2650 50  0001 L CIN
F 3 "http://www.allegromicro.com/~/media/Files/Datasheets/A1301-2-Datasheet.ashx" H 4550 3000 50  0001 C CNN
	1    4650 3000
	1    0    0    -1  
$EndComp
Wire Wire Line
	5750 2500 5750 2600
Wire Wire Line
	4550 2600 4550 2500
$Comp
L power:+5V #PWR06
U 1 1 60B4EB48
P 4550 2500
F 0 "#PWR06" H 4550 2350 50  0001 C CNN
F 1 "+5V" H 4565 2673 50  0000 C CNN
F 2 "" H 4550 2500 50  0001 C CNN
F 3 "" H 4550 2500 50  0001 C CNN
	1    4550 2500
	1    0    0    -1  
$EndComp
Wire Wire Line
	5450 2600 4550 2600
Connection ~ 4550 2600
$EndSCHEMATC
